Fragment length and duplication analysis Crits Christoph 2021 – Harmon’s Public Notebook
…
Widths and merge rates

All dedup’d reads

hv_hits |>
  count(sample, bbmerge_merge_status) |>
  mutate(.by = sample, prop = n / sum(n))

# A tibble: 36 × 4
   sample      bbmerge_merge_status     n  prop
   <fct>                      <dbl> <int> <dbl>
 1 SRR12596165                    0  1089 0.733
 2 SRR12596165                    1   396 0.267
 3 SRR12596166                    0  1888 0.790
 4 SRR12596166                    1   501 0.210
 5 SRR12596167                    0   681 0.875
 6 SRR12596167                    1    97 0.125
 7 SRR12596168                    0  6111 0.784
 8 SRR12596168                    1  1680 0.216
 9 SRR12596169                    0 11089 0.843
10 SRR12596169                    1  2070 0.157
# ℹ 26 more rows
…
HV reads

true_hv_hits <- hv_hits |>
  filter(hit_hv == 1)

hv_merged_stats <- true_hv_hits |>
  count(sample, bbmerge_merge_status) |>
  mutate(.by = sample, prop = n / sum(n)) |>
  print()

# A tibble: 36 × 4
   sample      bbmerge_merge_status     n   prop
   <fct>                      <dbl> <int>  <dbl>
 1 SRR12596165                    0   563 0.856 
 2 SRR12596165                    1    95 0.144 
 3 SRR12596166                    0   783 0.873 
 4 SRR12596166                    1   114 0.127 
 5 SRR12596167                    0   670 0.952 
 6 SRR12596167                    1    34 0.0483
 7 SRR12596168                    0  2646 0.862 
 8 SRR12596168                    1   424 0.138 
 9 SRR12596169                    0  3363 0.892 
10 SRR12596169                    1   408 0.108 
# ℹ 26 more rows
…
